<svg width="234" height="104" viewBox="0 0 234 104" fill="none" xmlns="http://www.w3.org/2000/svg">
<line x1="1.65573" y1="93.2943" x2="29.9786" y2="99.8785" stroke="#FFA500" stroke-width="8"/>
<line y1="-4" x2="29.0781" y2="-4" transform="matrix(-0.974027 0.226432 0.226432 0.974027 233.258 97.1904)" stroke="#FFA500" stroke-width="8"/>
<line x1="26.3739" y1="43.4493" x2="48.8493" y2="61.8991" stroke="#FFA500" stroke-width="8"/>
<line y1="-4" x2="29.0781" y2="-4" transform="matrix(-0.772931 0.63449 0.63449 0.772931 210.172 46.541)" stroke="#FFA500" stroke-width="8"/>
<line x1="116.992" y1="30.0049" x2="116.992" y2="0.92676" stroke="#FFA500" stroke-width="8"/>
<line x1="80.5386" y1="38.2892" x2="68.7528" y2="11.7067" stroke="#FFA500" stroke-width="8"/>
<line y1="-4" x2="29.0781" y2="-4" transform="matrix(0.405314 -0.914177 -0.914177 -0.405314 149.812 36.668)" stroke="#FFA500" stroke-width="8"/>
</svg>
